<svg width="31" height="31" viewBox="0 0 31 31" fill="none" xmlns="http://www.w3.org/2000/svg">
<path d="M24.6573 9.36102L21.2234 5.92712C20.7753 5.50615 20.188 5.2646 19.5733 5.24843C18.9586 5.23225 18.3595 5.44258 17.8898 5.83939L6.61056 17.1186C6.20547 17.5271 5.95324 18.0626 5.89621 18.635L5.35732 23.8611C5.34044 24.0446 5.36425 24.2297 5.42708 24.403C5.4899 24.5763 5.59017 24.7336 5.72076 24.8637C5.83786 24.9798 5.97674 25.0717 6.12944 25.1341C6.28213 25.1965 6.44563 25.2281 6.61056 25.2271H6.72336L11.9494 24.7509C12.5219 24.6939 13.0573 24.4416 13.4658 24.0365L24.745 12.7573C25.1828 12.2948 25.4194 11.6777 25.403 11.041C25.3865 10.4044 25.1184 9.80029 24.6573 9.36102ZM20.3963 13.5469L17.0376 10.1882L19.4814 7.68167L22.9028 11.103L20.3963 13.5469Z" fill="#EFEFEF"/>
</svg>
