<?xml version="1.0" encoding="UTF-8" standalone="no"?>
<svg
   xmlns:dc="http://purl.org/dc/elements/1.1/"
   xmlns:cc="http://creativecommons.org/ns#"
   xmlns:rdf="http://www.w3.org/1999/02/22-rdf-syntax-ns#"
   xmlns:svg="http://www.w3.org/2000/svg"
   xmlns="http://www.w3.org/2000/svg"
   xmlns:sodipodi="http://sodipodi.sourceforge.net/DTD/sodipodi-0.dtd"
   xmlns:inkscape="http://www.inkscape.org/namespaces/inkscape"
   version="1.1"
   id="svg833"
   xml:space="preserve"
   width="1359.4581"
   height="523.25922"
   viewBox="0 0 1359.4581 523.25922"
   sodipodi:docname="logo.svg"
   inkscape:version="1.0.1 (3bc2e813f5, 2020-09-07)"><metadata
     id="metadata839"><rdf:RDF><cc:Work
         rdf:about=""><dc:format>image/svg+xml</dc:format><dc:type
           rdf:resource="http://purl.org/dc/dcmitype/StillImage" /><dc:title></dc:title></cc:Work></rdf:RDF></metadata><defs
     id="defs837"><clipPath
       clipPathUnits="userSpaceOnUse"
       id="clipPath849"><path
         d="M 0,1080 H 1920 V 0 H 0 Z"
         id="path847" /></clipPath></defs><sodipodi:namedview
     pagecolor="#ffffff"
     bordercolor="#666666"
     borderopacity="1"
     objecttolerance="10"
     gridtolerance="10"
     guidetolerance="10"
     inkscape:pageopacity="0"
     inkscape:pageshadow="2"
     inkscape:window-width="1366"
     inkscape:window-height="705"
     id="namedview835"
     showgrid="false"
     inkscape:zoom="0.28515625"
     inkscape:cx="679.72875"
     inkscape:cy="261.63001"
     inkscape:window-x="-8"
     inkscape:window-y="-8"
     inkscape:window-maximized="1"
     inkscape:current-layer="g841"
     inkscape:document-rotation="0"
     fit-margin-top="0"
     fit-margin-left="0"
     fit-margin-right="0"
     fit-margin-bottom="0" /><g
     id="g841"
     inkscape:groupmode="layer"
     inkscape:label="CLARA LAB-LOGO_FINAL"
     transform="matrix(1.3333333,0,0,-1.3333333,-600.27125,981.63001)"><g
       id="g843"><g
         id="g845"
         clip-path="url(#clipPath849)"><g
           id="g851"
           transform="translate(916.3777,424.31)"><path
             d="M 0,0 H -15.379 C -28.117,0 -38.48,10.363 -38.48,23.101 v 46.577 c 0,12.738 10.363,23.1 23.101,23.1 H 0 c 12.912,0 23.417,-10.504 23.417,-23.416 0,-5.287 -4.285,-9.572 -9.572,-9.572 -5.286,0 -9.572,4.285 -9.572,9.572 0,2.356 -1.917,4.273 -4.273,4.273 h -15.379 c -2.182,0 -3.957,-1.775 -3.957,-3.957 V 23.101 c 0,-2.182 1.775,-3.957 3.957,-3.957 H 0 c 2.356,0 4.273,1.917 4.273,4.273 0,5.286 4.286,9.572 9.572,9.572 5.287,0 9.572,-4.286 9.572,-9.572 C 23.417,10.505 12.912,0 0,0"
             style="fill:#370146;fill-opacity:1;fill-rule:nonzero;stroke:none"
             id="path853" /></g><g
           id="g855"
           transform="translate(988.264,424.31)"><path
             d="M 0,0 H -15.063 C -27.976,0 -38.48,10.505 -38.48,23.417 v 59.79 c 0,5.286 4.286,9.571 9.572,9.571 5.286,0 9.572,-4.285 9.572,-9.571 v -59.79 c 0,-2.356 1.917,-4.273 4.273,-4.273 H 0 c 2.356,0 4.273,1.917 4.273,4.273 0,5.286 4.286,9.572 9.572,9.572 5.286,0 9.572,-4.286 9.572,-9.572 C 23.417,10.505 12.912,0 0,0"
             style="fill:#370146;fill-opacity:1;fill-rule:nonzero;stroke:none"
             id="path857" /></g><g
           id="g859"
           transform="translate(1040.8132,487.0893)"><path
             d="m 0,0 v 6.899 c 0,2.182 1.775,3.956 3.957,3.956 h 15.695 c 2.182,0 3.957,-1.774 3.957,-3.956 V 0 Z M 19.652,29.999 H 3.957 c -12.738,0 -23.101,-10.362 -23.101,-23.1 v -60.107 c 0,-5.286 4.286,-9.571 9.572,-9.571 5.286,0 9.572,4.285 9.572,9.571 v 34.064 h 23.609 v -34.064 c 0,-5.286 4.286,-9.571 9.572,-9.571 5.287,0 9.572,4.285 9.572,9.571 V 6.899 c 0,12.738 -10.363,23.1 -23.101,23.1"
             style="fill:#370146;fill-opacity:1;fill-rule:nonzero;stroke:none"
             id="path861" /></g><g
           id="g863"
           transform="translate(1302.6082,424.31)"><path
             d="M 0,0 H -15.063 C -27.976,0 -38.48,10.505 -38.48,23.417 v 59.79 c 0,5.286 4.285,9.571 9.572,9.571 5.286,0 9.571,-4.285 9.571,-9.571 v -59.79 c 0,-2.356 1.917,-4.273 4.274,-4.273 H 0 c 2.356,0 4.273,1.917 4.273,4.273 0,5.286 4.286,9.572 9.572,9.572 5.287,0 9.572,-4.286 9.572,-9.572 C 23.417,10.505 12.912,0 0,0"
             style="fill:#afda00;fill-opacity:1;fill-rule:nonzero;stroke:none"
             id="path865" /></g><g
           id="g867"
           transform="translate(1355.158,487.0893)"><path
             d="m 0,0 v 6.899 c 0,2.182 1.774,3.956 3.957,3.956 h 15.695 c 2.182,0 3.957,-1.774 3.957,-3.956 V 0 Z M 19.652,29.999 H 3.957 c -12.738,0 -23.102,-10.362 -23.102,-23.1 v -60.107 c 0,-5.286 4.287,-9.571 9.573,-9.571 5.286,0 9.572,4.285 9.572,9.571 v 34.064 h 23.609 v -34.064 c 0,-5.286 4.286,-9.571 9.572,-9.571 5.287,0 9.572,4.285 9.572,9.571 V 6.899 c 0,12.738 -10.363,23.1 -23.101,23.1"
             style="fill:#afda00;fill-opacity:1;fill-rule:nonzero;stroke:none"
             id="path869" /></g><g
           id="g871"
           transform="translate(1184.5847,487.0893)"><path
             d="m 0,0 v 6.899 c 0,2.182 1.775,3.956 3.957,3.956 h 15.695 c 2.182,0 3.957,-1.774 3.957,-3.956 V 0 Z M 19.652,29.999 H 3.957 c -12.738,0 -23.101,-10.362 -23.101,-23.1 v -60.107 c 0,-5.286 4.286,-9.571 9.573,-9.571 5.286,0 9.571,4.285 9.571,9.571 v 34.064 h 23.609 v -34.064 c 0,-5.286 4.286,-9.571 9.573,-9.571 5.286,0 9.571,4.285 9.571,9.571 V 6.899 c 0,12.738 -10.362,23.1 -23.101,23.1"
             style="fill:#370146;fill-opacity:1;fill-rule:nonzero;stroke:none"
             id="path873" /></g><g
           id="g875"
           transform="translate(1112.699,486.9531)"><path
             d="m 0,0 h 19.652 c 2.183,0 3.957,1.775 3.957,3.957 v 3.214 c 0,2.183 -1.774,3.957 -3.957,3.957 H 3.957 C 1.775,11.128 0,9.354 0,7.171 Z m -9.572,-62.779 c -5.286,0 -9.572,4.285 -9.572,9.571 v 43.566 0.144 16.669 c 0,12.738 10.364,23.101 23.101,23.101 h 15.695 c 12.739,0 23.101,-10.363 23.101,-23.101 V 3.957 c 0,-12.738 -10.362,-23.101 -23.101,-23.101 h -6.445 l 26.812,-27.365 c 3.699,-3.776 3.637,-9.836 -0.139,-13.536 -3.776,-3.7 -9.836,-3.637 -13.535,0.139 L 0,-33.019 v -20.189 c 0,-5.286 -4.285,-9.571 -9.572,-9.571"
             style="fill:#370146;fill-opacity:1;fill-rule:nonzero;stroke:none"
             id="path877" /></g><g
           id="g879"
           transform="translate(1450.6531,447.7265)"><path
             d="m 0,0 c 0,-2.356 -1.917,-4.273 -4.273,-4.273 h -15.064 c -2.355,0 -4.272,1.917 -4.272,4.273 V 19.946 H -2.701 0 Z m -19.337,50.218 h 2.791 c 2.357,0 4.274,-1.917 4.274,-4.273 V 39.09 h -11.337 v 6.855 c 0,2.356 1.917,4.273 4.272,4.273 M 9.571,39.09 h -2.7 v 6.855 c 0,12.912 -10.505,23.417 -23.417,23.417 h -2.791 c -12.911,0 -23.416,-10.505 -23.416,-23.417 V 0 c 0,-12.912 10.505,-23.417 23.416,-23.417 h 15.064 c 12.912,0 23.417,10.505 23.417,23.417 v 29.518 c 0,5.286 -4.286,9.572 -9.573,9.572"
             style="fill:#afda00;fill-opacity:1;fill-rule:nonzero;stroke:none"
             id="path881" /></g><g
           id="g883"
           transform="translate(1251.6677,424.4789)"><path
             d="m 0,0 h -11.077 c -3.095,0 -5.605,2.509 -5.605,5.604 v 11.077 c 0,3.095 2.51,5.604 5.605,5.604 H 0 c 3.095,0 5.604,-2.509 5.604,-5.604 V 5.604 C 5.604,2.509 3.095,0 0,0"
             style="fill:#ff2e70;fill-opacity:1;fill-rule:nonzero;stroke:none"
             id="path885" /></g><g
           id="g887"
           transform="translate(508.5677,444.0361)"><path
             d="m 0,0 c 0,-14.221 -11.569,-25.79 -25.79,-25.79 -14.22,0 -25.79,11.569 -25.79,25.79 v 191.37 c 0,7.85 3.53,14.887 9.081,19.621 -1.78,1.446 -3.638,2.805 -5.48,4.182 -6.376,-5.948 -10.375,-14.416 -10.375,-23.803 V 0 c 0,-17.956 14.608,-32.564 32.564,-32.564 17.956,0 32.564,14.608 32.564,32.564 V 147.725 C 4.466,148.606 2.208,149.602 0,150.701 Z"
             style="fill:#ff2e70;fill-opacity:1;fill-rule:nonzero;stroke:none"
             id="path889" /></g><g
           id="g891"
           transform="translate(642.0789,673.7016)"><path
             d="M 0,0 C -0.312,0.042 -0.602,0.115 -0.872,0.212 L -90.842,-37.3 c 2.735,-1.315 5.487,-2.594 8.22,-3.911 L 10.782,-2.268 C 7.245,-1.273 3.652,-0.489 0,0"
             style="fill:#afda00;fill-opacity:1;fill-rule:nonzero;stroke:none"
             id="path893" /></g><g
           id="g895"
           transform="translate(645.5101,736.2206)"><path
             d="m 0,0 c -4.208,0.002 -8.419,-0.821 -12.432,-2.474 l -162.689,-67.831 c -8.044,-3.311 -14.316,-9.556 -17.662,-17.585 -2.052,-4.924 -2.847,-10.158 -2.396,-15.325 2.252,0.183 4.506,0.341 6.755,0.532 -0.367,4.109 0.262,8.271 1.894,12.187 2.65,6.359 7.617,11.305 14.001,13.933 L -9.84,-8.732 c 2.951,1.215 6.039,1.856 9.136,1.939 C -0.551,-4.521 -0.276,-2.26 0,0"
             style="fill:#afda00;fill-opacity:1;fill-rule:nonzero;stroke:none"
             id="path897" /></g><g
           id="g899"
           transform="translate(621.6985,693.7197)"><path
             d="m 0,0 c -2.65,6.358 -2.666,13.369 -0.043,19.739 2.623,6.37 7.569,11.338 13.927,13.988 3.199,1.333 6.562,1.999 9.925,1.999 3.32,0 6.641,-0.651 9.8,-1.951 l 157.774,-65.781 c 4.114,1.74 8.669,1.992 13.136,1.231 -1.748,1.155 -3.62,2.151 -5.6,2.966 L 36.202,40.033 C 28.159,43.345 19.308,43.325 11.279,39.979 3.25,36.633 -2.996,30.361 -6.307,22.318 -9.618,14.274 -9.599,5.423 -6.253,-2.606 c 3.346,-8.029 9.618,-14.274 17.648,-17.58 l 97.077,-40.474 c 2.722,1.422 5.568,2.61 8.426,3.826 L 13.987,-13.927 C 7.617,-11.305 2.649,-6.358 0,0"
             style="fill:#afda00;fill-opacity:1;fill-rule:nonzero;stroke:none"
             id="path901" /></g><g
           id="g903"
           transform="translate(645.4593,714.0268)"><path
             d="m 0,0 c -5.785,0 -10.492,-4.707 -10.492,-10.492 0,-5.786 4.707,-10.492 10.492,-10.492 5.786,0 10.492,4.706 10.492,10.492 C 10.492,-4.707 5.786,0 0,0 m 0,-27.758 c -9.521,0 -17.266,7.745 -17.266,17.266 0,9.52 7.745,17.266 17.266,17.266 9.521,0 17.266,-7.746 17.266,-17.266 0,-9.521 -7.745,-17.266 -17.266,-17.266"
             style="fill:#afda00;fill-opacity:1;fill-rule:nonzero;stroke:none"
             id="path905" /></g><g
           id="g907"
           transform="translate(618.5779,550.8398)"><path
             d="m 0,0 -145.61,60.71 c -6.371,2.623 -11.338,7.569 -13.988,13.928 -2.65,6.358 -2.665,13.368 -0.043,19.738 2.623,6.37 7.569,11.338 13.928,13.988 3.198,1.333 6.561,1.999 9.924,1.999 3.321,0 6.642,-0.651 9.801,-1.951 L 30.052,43.354 c 2.242,1.783 4.632,3.209 7.182,4.344 l -160.63,66.972 c -8.043,3.312 -16.895,3.292 -24.923,-0.053 -8.029,-3.346 -14.274,-9.619 -17.586,-17.662 -3.311,-8.043 -3.292,-16.894 0.054,-24.923 3.346,-8.029 9.619,-14.275 17.648,-17.58 L -0.136,-7.282 C -0.121,-4.855 -0.056,-2.428 0,0"
             style="fill:#afda00;fill-opacity:1;fill-rule:nonzero;stroke:none"
             id="path909" /></g><g
           id="g911"
           transform="translate(674.7269,544.4648)"><path
             d="m 0,0 103.42,43.12 c 0.271,2.6 0.581,5.188 1.003,7.756 L -0.17,7.268 C -0.143,4.844 -0.08,2.422 0,0"
             style="fill:#370146;fill-opacity:1;fill-rule:nonzero;stroke:none"
             id="path913" /></g><g
           id="g915"
           transform="translate(838.3192,647.7949)"><path
             d="m 0,0 c -3.311,8.043 -9.557,14.315 -17.585,17.662 -8.031,3.346 -16.882,3.365 -24.937,0.047 l -162.69,-67.831 c -8.043,-3.311 -14.316,-9.556 -17.662,-17.585 -1.897,-4.555 -2.722,-9.374 -2.479,-14.16 2.268,-0.009 4.534,-0.03 6.799,-0.086 -0.266,3.93 0.373,7.898 1.933,11.64 2.65,6.359 7.617,11.305 14.002,13.934 l 162.689,67.83 c 3.168,1.304 6.493,1.956 9.819,1.956 3.361,0 6.723,-0.666 9.92,-1.998 6.358,-2.65 11.305,-7.618 13.927,-13.988 1.139,-2.767 1.78,-5.656 1.923,-8.559 2.26,0.062 4.516,0.177 6.768,0.345 C 2.245,-7.132 1.437,-3.49 0,0"
             style="fill:#370146;fill-opacity:1;fill-rule:nonzero;stroke:none"
             id="path917" /></g><g
           id="g919"
           transform="translate(808.2147,523.6581)"><path
             d="m 0,0 c -14.22,0 -25.79,-11.569 -25.79,-25.79 v -53.217 c 0,-14.221 11.57,-25.79 25.79,-25.79 14.221,0 25.79,11.569 25.79,25.79 V -25.79 C 25.79,-11.569 14.221,0 0,0 m 0,-111.571 c -17.956,0 -32.564,14.608 -32.564,32.564 v 53.217 c 0,17.956 14.608,32.564 32.564,32.564 17.956,0 32.564,-14.608 32.564,-32.564 v -53.217 c 0,-17.956 -14.608,-32.564 -32.564,-32.564"
             style="fill:#370146;fill-opacity:1;fill-rule:nonzero;stroke:none"
             id="path921" /></g><g
           id="g923"
           transform="translate(619.7166,567.7661)"><path
             d="M 0,0 C 0.018,14.221 11.602,25.776 25.822,25.758 40.042,25.741 51.598,14.157 51.58,-0.064 l -0.186,-150.064 c 2.244,1.279 4.495,2.546 6.778,3.755 L 58.354,-0.072 C 58.376,17.884 43.786,32.51 25.831,32.532 7.875,32.554 -6.751,17.964 -6.774,0.009 l -0.18,-144.803 c 2.257,-1.128 4.514,-2.257 6.77,-3.385 z"
             style="fill:#370146;fill-opacity:1;fill-rule:nonzero;stroke:none"
             id="path925" /></g><g
           id="g927"
           transform="translate(808.2147,661.1957)"><path
             d="m 0,0 c -14.22,0 -25.79,-11.569 -25.79,-25.79 v -58.392 c 0,-14.22 11.57,-25.79 25.79,-25.79 14.221,0 25.79,11.57 25.79,25.79 V -25.79 C 25.79,-11.569 14.221,0 0,0 m 0,-116.746 c -17.956,0 -32.564,14.608 -32.564,32.564 v 58.392 c 0,17.956 14.608,32.564 32.564,32.564 17.956,0 32.564,-14.608 32.564,-32.564 v -58.392 c 0,-17.956 -14.608,-32.564 -32.564,-32.564"
             style="fill:#370146;fill-opacity:1;fill-rule:nonzero;stroke:none"
             id="path929" /></g><g
           id="g931"
           transform="translate(808.2147,646.6098)"><path
             d="m 0,0 c -5.785,0 -10.492,-4.707 -10.492,-10.492 0,-5.785 4.707,-10.492 10.492,-10.492 5.786,0 10.492,4.707 10.492,10.492 C 10.492,-4.707 5.786,0 0,0 m 0,-27.758 c -9.521,0 -17.267,7.745 -17.267,17.266 0,9.52 7.746,17.266 17.267,17.266 9.52,0 17.266,-7.746 17.266,-17.266 0,-9.521 -7.746,-17.266 -17.266,-17.266"
             style="fill:#370146;fill-opacity:1;fill-rule:nonzero;stroke:none"
             id="path933" /></g><g
           id="g935"
           transform="translate(808.2147,587.3193)"><path
             d="m 0,0 c -5.785,0 -10.492,-4.707 -10.492,-10.492 0,-5.785 4.707,-10.492 10.492,-10.492 5.786,0 10.492,4.707 10.492,10.492 C 10.492,-4.707 5.786,0 0,0 m 0,-27.758 c -9.521,0 -17.267,7.745 -17.267,17.266 0,9.52 7.746,17.266 17.267,17.266 9.52,0 17.266,-7.746 17.266,-17.266 0,-9.521 -7.746,-17.266 -17.266,-17.266"
             style="fill:#370146;fill-opacity:1;fill-rule:nonzero;stroke:none"
             id="path937" /></g><g
           id="g939"
           transform="translate(808.2147,509.0722)"><path
             d="m 0,0 c -5.785,0 -10.492,-4.707 -10.492,-10.492 0,-5.785 4.707,-10.492 10.492,-10.492 5.786,0 10.492,4.707 10.492,10.492 C 10.492,-4.707 5.786,0 0,0 m 0,-27.758 c -9.521,0 -17.267,7.745 -17.267,17.266 0,9.521 7.746,17.266 17.267,17.266 9.52,0 17.266,-7.745 17.266,-17.266 0,-9.521 -7.746,-17.266 -17.266,-17.266"
             style="fill:#370146;fill-opacity:1;fill-rule:nonzero;stroke:none"
             id="path941" /></g><g
           id="g943"
           transform="translate(808.2147,455.7089)"><path
             d="m 0,0 c -5.785,0 -10.492,-4.707 -10.492,-10.492 0,-5.786 4.707,-10.492 10.492,-10.492 5.786,0 10.492,4.706 10.492,10.492 C 10.492,-4.707 5.786,0 0,0 m 0,-27.758 c -9.521,0 -17.267,7.745 -17.267,17.266 0,9.52 7.746,17.266 17.267,17.266 9.52,0 17.266,-7.746 17.266,-17.266 0,-9.521 -7.746,-17.266 -17.266,-17.266"
             style="fill:#370146;fill-opacity:1;fill-rule:nonzero;stroke:none"
             id="path945" /></g><g
           id="g947"
           transform="translate(645.4061,577.6762)"><path
             d="m 0,0 c -5.786,0 -10.492,-4.707 -10.492,-10.492 0,-5.785 4.706,-10.492 10.492,-10.492 5.785,0 10.492,4.707 10.492,10.492 C 10.492,-4.707 5.785,0 0,0 m 0,-27.758 c -9.52,0 -17.266,7.746 -17.266,17.266 0,9.521 7.746,17.266 17.266,17.266 9.521,0 17.266,-7.745 17.266,-17.266 0,-9.52 -7.745,-17.266 -17.266,-17.266"
             style="fill:#370146;fill-opacity:1;fill-rule:nonzero;stroke:none"
             id="path949" /></g><g
           id="g951"
           transform="translate(635.6844,352.5043)"><path
             d="m 0,0 -162.717,67.843 c -6.37,2.622 -11.338,7.568 -13.988,13.927 -1.19,2.856 -1.844,5.844 -1.97,8.846 h -6.779 c 0.13,-3.886 0.956,-7.756 2.496,-11.451 3.347,-8.03 9.619,-14.275 17.648,-17.58 L -2.592,-6.258 C 0.985,-7.731 4.722,-8.54 8.476,-8.695 v 6.782 C 5.599,-1.763 2.739,-1.127 0,0"
             style="fill:#ff2e70;fill-opacity:1;fill-rule:nonzero;stroke:none"
             id="path953" /></g><g
           id="g955"
           transform="translate(511.4256,460.1957)"><path
             d="m 0,0 129.853,-54.141 c 2.73,1.462 5.498,2.775 8.335,3.865 L 0,7.339 Z"
             style="fill:#ff2e70;fill-opacity:1;fill-rule:nonzero;stroke:none"
             id="path957" /></g><g
           id="g959"
           transform="translate(645.4061,386.4111)"><path
             d="m 0,0 c -5.786,0 -10.492,-4.707 -10.492,-10.492 0,-5.786 4.706,-10.492 10.492,-10.492 5.785,0 10.492,4.706 10.492,10.492 C 10.492,-4.707 5.785,0 0,0 m 0,-27.758 c -9.52,0 -17.266,7.745 -17.266,17.266 0,9.52 7.746,17.266 17.266,17.266 9.521,0 17.266,-7.746 17.266,-17.266 0,-9.521 -7.745,-17.266 -17.266,-17.266"
             style="fill:#370146;fill-opacity:1;fill-rule:nonzero;stroke:none"
             id="path961" /></g><g
           id="g963"
           transform="translate(482.741,453.5463)"><path
             d="m 0,0 c -5.785,0 -10.493,-4.707 -10.493,-10.492 0,-5.785 4.708,-10.492 10.493,-10.492 5.785,0 10.492,4.707 10.492,10.492 C 10.492,-4.707 5.785,0 0,0 m 0,-27.758 c -9.521,0 -17.267,7.745 -17.267,17.266 0,9.52 7.746,17.266 17.267,17.266 9.52,0 17.266,-7.746 17.266,-17.266 0,-9.521 -7.746,-17.266 -17.266,-17.266"
             style="fill:#ff2e70;fill-opacity:1;fill-rule:nonzero;stroke:none"
             id="path965" /></g><g
           id="g967"
           transform="translate(482.741,645.7841)"><path
             d="m 0,0 c -5.785,0 -10.493,-4.707 -10.493,-10.492 0,-5.785 4.708,-10.492 10.493,-10.492 5.785,0 10.492,4.707 10.492,10.492 C 10.492,-4.707 5.785,0 0,0 m 0,-27.758 c -9.521,0 -17.267,7.745 -17.267,17.266 0,9.52 7.746,17.266 17.267,17.266 9.52,0 17.266,-7.746 17.266,-17.266 0,-9.521 -7.746,-17.266 -17.266,-17.266"
             style="fill:#afda00;fill-opacity:1;fill-rule:nonzero;stroke:none"
             id="path969" /></g><g
           id="g971"
           transform="translate(833.9827,443.0771)"><path
             d="m 0,0 c -0.131,-2.988 -0.786,-5.96 -1.97,-8.803 -2.65,-6.359 -7.617,-11.304 -14.002,-13.933 l -162.689,-67.83 c -6.369,-2.623 -13.379,-2.608 -19.739,0.042 -6.358,2.65 -11.305,7.617 -13.927,13.987 -2.623,6.37 -2.607,13.381 0.043,19.739 2.649,6.359 7.617,11.305 14.001,13.933 l 143.902,59.998 c -0.033,2.414 -0.104,4.825 -0.249,7.235 l -146.245,-60.974 c -8.044,-3.312 -14.316,-9.557 -17.662,-17.586 -3.346,-8.029 -3.365,-16.88 -0.054,-24.923 3.311,-8.044 9.557,-14.316 17.586,-17.662 4.035,-1.681 8.276,-2.522 12.522,-2.522 4.201,0 8.407,0.824 12.415,2.474 l 162.689,67.831 c 8.043,3.311 14.316,9.557 17.662,17.586 1.526,3.662 2.352,7.495 2.493,11.346 C 4.519,-0.062 2.26,-0.031 0,0"
             style="fill:#370146;fill-opacity:1;fill-rule:nonzero;stroke:none"
             id="path973" /></g></g></g></g></svg>
